<?xml version="1.0" encoding="UTF-8" standalone="no"?>
<!-- Created with Inkscape (http://www.inkscape.org/) -->

<svg
   width="178.71506mm"
   height="178.07961mm"
   viewBox="0 0 178.71506 178.07961"
   version="1.1"
   id="svg5"
   sodipodi:docname="icons-ink.svg"
   xml:space="preserve"
   inkscape:version="1.2.1 (1:1.2.1+202210291244+9c6d41e410)"
   xmlns:inkscape="http://www.inkscape.org/namespaces/inkscape"
   xmlns:sodipodi="http://sodipodi.sourceforge.net/DTD/sodipodi-0.dtd"
   xmlns="http://www.w3.org/2000/svg"
   xmlns:svg="http://www.w3.org/2000/svg"><sodipodi:namedview
     id="namedview219"
     pagecolor="#ffffff"
     bordercolor="#666666"
     borderopacity="1.0"
     inkscape:showpageshadow="2"
     inkscape:pageopacity="0.0"
     inkscape:pagecheckerboard="0"
     inkscape:deskcolor="#d1d1d1"
     inkscape:document-units="mm"
     showgrid="true"
     inkscape:current-layer="svg5"><inkscape:page
       x="0"
       y="0"
       width="178.71506"
       height="178.07962"
       id="page536" /><inkscape:page
       x="188.71506"
       y="0"
       width="178.71506"
       height="178.07961"
       id="page538" /><inkscape:page
       x="377.43011"
       y="0"
       width="178.71506"
       height="178.07961"
       id="page612" /><inkscape:page
       x="566.14514"
       y="0"
       width="178.71503"
       height="178.07961"
       id="page614" /><inkscape:page
       x="754.86017"
       y="0"
       width="178.71503"
       height="178.07961"
       id="page667"
       inkscape:export-filename="./html.png"
       inkscape:export-xdpi="4.5480218"
       inkscape:export-ydpi="4.5480218" /><inkscape:grid
       type="xygrid"
       id="grid796" /><inkscape:page
       x="943.5752"
       y="0"
       width="178.71503"
       height="178.07961"
       id="page3746"
       inkscape:export-filename="csv.png"
       inkscape:export-xdpi="4.5480218"
       inkscape:export-ydpi="4.5480218" /></sodipodi:namedview><defs
     id="defs2" /><g
     id="g2151"
     transform="translate(582.18166,-58.01457)"><path
       style="font-variation-settings:normal;opacity:1;vector-effect:none;fill:#ffffff;fill-opacity:1;stroke:none;stroke-width:0.264583;stroke-linecap:butt;stroke-linejoin:miter;stroke-miterlimit:4;stroke-dasharray:none;stroke-dashoffset:0;stroke-opacity:1;stop-color:#000000;stop-opacity:1"
       d="m -182.73539,204.46874 68.7,-113.428728 69.514789,116.186658 z"
       id="path842" /><g
       id="g669"><path
         style="fill:#e80101;stroke-width:1"
         d="m -177.61727,212.8603 -14.20877,-0.13684 -1.07894,-1.05372 c -1.66716,-1.62818 -2.30824,-4.52045 -1.49648,-6.75149 0.18531,-0.50932 12.2219,-20.86901 26.74798,-45.24375 14.52607,-24.37474 30.51737,-51.22333 35.53622,-59.66354 6.03154,-10.143241 9.53159,-15.766964 10.32391,-16.588019 0.6593,-0.683202 1.80498,-1.503705 2.54595,-1.82334 2.68601,-1.158664 6.43106,-0.549378 8.68337,1.412707 0.69719,0.607347 7.00571,10.821337 21.529566,34.858022 11.29888,18.69943 23.78406,39.35677 27.74484,45.90521 3.96079,6.54844 11.22194,18.55509 16.1359,26.68144 6.45095,10.6681 8.97298,15.06221 9.07298,15.80776 0.22346,1.66605 -0.4048,3.36141 -1.76563,4.76458 -2.21728,2.28626 3.76491,2.09897 -64.822126,2.02942 -33.40701,-0.0339 -67.13395,-0.12318 -74.94877,-0.19844 z m 86.241576,-16.14397 c 22.24921,-1.2e-4 30.75781,-0.0809 30.75781,-0.29209 0,-0.2605 -5.82812,-10.07151 -40.612986,-68.36745 -5.12306,-8.58573 -10.50907,-17.61653 -11.9689,-20.06845 l -2.65424,-4.45803 -1.4514,2.47366 c -9.08471,15.48338 -52.63384,90.26603 -52.76539,90.60883 -0.16505,0.43013 1.18178,0.44591 23.88119,0.27976 13.23085,-0.0968 37.89712,-0.17614 54.813916,-0.17623 z m -23.266796,-20.28924 c 0.191,-0.0764 0.4192,-0.067 0.50712,0.0209 0.0879,0.0879 -0.0683,0.15045 -0.34726,0.13896 -0.30823,-0.0127 -0.37092,-0.0754 -0.15986,-0.15985 z"
         id="path285" /><path
         style="fill:#010101;stroke-width:1"
         d="m -116.93609,190.87231 c -2.8274,-0.86368 -5.3297,-4.20037 -5.3297,-7.10686 0,-2.46145 1.74984,-5.15395 4.13364,-6.36047 1.7927,-0.90733 4.84488,-1.06364 6.49722,-0.33273 2.85609,1.26338 4.45209,3.7025 4.4478,6.79743 -0.006,4.20581 -2.71993,7.00562 -6.97122,7.19134 -1.03935,0.0454 -2.28934,-0.0395 -2.77774,-0.18871 z m 0.0695,-19.31227 c -0.45019,-0.13066 -1.41772,-0.87112 -2.15006,-1.64547 -1.61166,-1.70409 -1.75053,-2.23363 -2.31549,-8.82951 -0.55438,-6.47245 -1.9921,-29.42927 -1.98561,-31.70535 0.006,-2.09568 0.53378,-3.53082 1.73622,-4.72092 1.0454,-1.03467 1.84001,-1.40348 3.78292,-1.7558 3.35227,-0.60788 6.66206,0.29946 8.58277,2.35285 2.07901,2.22264 2.05258,1.61353 0.97123,22.38012 -0.88912,17.07485 -1.03669,18.89703 -1.64547,20.31674 -0.74021,1.72623 -2.51057,3.24668 -4.20294,3.60962 -1.50549,0.32288 -1.65368,0.32275 -2.77357,-0.002 z"
         id="path283" /></g></g><g
     id="g2151-2"
     transform="translate(770.89669,-58.01457)"><path
       style="font-variation-settings:normal;opacity:1;vector-effect:none;fill:#e0cd1c;fill-opacity:1;stroke:none;stroke-width:0.264583;stroke-linecap:butt;stroke-linejoin:miter;stroke-miterlimit:4;stroke-dasharray:none;stroke-dashoffset:0;stroke-opacity:1;stop-color:#000000;stop-opacity:1"
       d="m -182.73539,204.46874 68.7,-113.428728 69.514789,116.186658 z"
       id="path842-9" /><path
       style="fill:#000000;fill-opacity:1;stroke-width:1"
       d="m -177.61727,212.8603 -14.20877,-0.13684 -1.07894,-1.05372 c -1.66716,-1.62818 -2.30824,-4.52045 -1.49648,-6.75149 0.18531,-0.50932 12.2219,-20.86901 26.74798,-45.24375 14.52607,-24.37474 30.51737,-51.22333 35.53622,-59.66354 6.03154,-10.143241 9.53159,-15.766964 10.32391,-16.588019 0.6593,-0.683202 1.80498,-1.503705 2.54595,-1.82334 2.68601,-1.158664 6.43106,-0.549378 8.68337,1.412707 0.69719,0.607347 7.00571,10.821337 21.529566,34.858022 11.29888,18.69943 23.78406,39.35677 27.74484,45.90521 3.96079,6.54844 11.22194,18.55509 16.1359,26.68144 6.45095,10.6681 8.97298,15.06221 9.07298,15.80776 0.22346,1.66605 -0.4048,3.36141 -1.76563,4.76458 -2.21728,2.28626 3.76491,2.09897 -64.822126,2.02942 -33.40701,-0.0339 -67.13395,-0.12318 -74.94877,-0.19844 z m 86.241576,-16.14397 c 22.24921,-1.2e-4 30.75781,-0.0809 30.75781,-0.29209 0,-0.2605 -5.82812,-10.07151 -40.612986,-68.36745 -5.12306,-8.58573 -10.50907,-17.61653 -11.9689,-20.06845 l -2.65424,-4.45803 -1.4514,2.47366 c -9.08471,15.48338 -52.63384,90.26603 -52.76539,90.60883 -0.16505,0.43013 1.18178,0.44591 23.88119,0.27976 13.23085,-0.0968 37.89712,-0.17614 54.813916,-0.17623 z m -23.266796,-20.28924 c 0.191,-0.0764 0.4192,-0.067 0.50712,0.0209 0.0879,0.0879 -0.0683,0.15045 -0.34726,0.13896 -0.30823,-0.0127 -0.37092,-0.0754 -0.15986,-0.15985 z"
       id="path285-2" /><path
       style="fill:#010101;stroke-width:1"
       d="m -116.93609,190.87231 c -2.8274,-0.86368 -5.3297,-4.20037 -5.3297,-7.10686 0,-2.46145 1.74984,-5.15395 4.13364,-6.36047 1.7927,-0.90733 4.84488,-1.06364 6.49722,-0.33273 2.85609,1.26338 4.45209,3.7025 4.4478,6.79743 -0.006,4.20581 -2.71993,7.00562 -6.97122,7.19134 -1.03935,0.0454 -2.28934,-0.0395 -2.77774,-0.18871 z m 0.0695,-19.31227 c -0.45019,-0.13066 -1.41772,-0.87112 -2.15006,-1.64547 -1.61166,-1.70409 -1.75053,-2.23363 -2.31549,-8.82951 -0.55438,-6.47245 -1.9921,-29.42927 -1.98561,-31.70535 0.006,-2.09568 0.53378,-3.53082 1.73622,-4.72092 1.0454,-1.03467 1.84001,-1.40348 3.78292,-1.7558 3.35227,-0.60788 6.66206,0.29946 8.58277,2.35285 2.07901,2.22264 2.05258,1.61353 0.97123,22.38012 -0.88912,17.07485 -1.03669,18.89703 -1.64547,20.31674 -0.74021,1.72623 -2.51057,3.24668 -4.20294,3.60962 -1.50549,0.32288 -1.65368,0.32275 -2.77357,-0.002 z"
       id="path283-7" /></g><g
     id="g5749"
     transform="translate(-7.820548,-9.1014176)"><circle
       style="fill:#254dff;fill-opacity:1;stroke:none;stroke-width:1.79917"
       id="path3964"
       cx="97.178078"
       cy="98.14122"
       r="79" /><circle
       style="fill:none;fill-opacity:1;stroke:#ffffff;stroke-width:5;stroke-miterlimit:4;stroke-dasharray:none;stroke-opacity:1"
       id="path3964-0"
       cx="97.178078"
       cy="98.14122"
       r="65.733231" /><g
       aria-label="?"
       id="text7924"
       style="font-weight:900;font-size:107.9px;line-height:1.25;font-family:Roboto;-inkscape-font-specification:'Roboto Heavy';letter-spacing:0px;word-spacing:0px;fill:#ffffff;stroke-width:0.264583"><path
         d="M 103.94817,112.41901 H 88.827419 q 0,-7.00718 1.633252,-11.69619 1.633252,-4.689016 5.690039,-8.113577 4.10947,-3.477246 6.05884,-6.164209 1.94936,-2.686963 1.94936,-5.848096 0,-7.955517 -6.796433,-7.955517 -2.739648,0 -4.899755,2.054736 -2.160108,2.002051 -2.265479,6.533008 H 72.336842 q 0.210743,-11.748877 7.375977,-17.017432 7.21792,-5.268555 17.649658,-5.268555 11.538133,0 18.071143,5.321241 6.58569,5.32124 6.58569,15.542236 0,6.849121 -3.68798,11.116651 -3.68799,4.267529 -9.00923,9.114604 -3.10845,2.68696 -4.21485,5.47929 -1.05371,2.73965 -1.15908,6.90181 z m -17.280859,16.01641 q 0,-3.79336 2.739649,-6.32227 2.739648,-2.58159 7.112549,-2.58159 4.372901,0 7.112551,2.58159 2.73965,2.52891 2.73965,6.32227 0,3.79335 -2.73965,6.37495 -2.73965,2.5289 -7.112551,2.5289 -4.372901,0 -7.112549,-2.5289 -2.739649,-2.5816 -2.739649,-6.37495 z"
         id="path19692" /></g></g><g
     id="g5749-9"
     transform="translate(180.89451,-9.1014216)"><circle
       style="fill:#254dff;fill-opacity:1;stroke:none;stroke-width:1.79917"
       id="path3964-3"
       cx="97.178078"
       cy="98.14122"
       r="79" /><circle
       style="fill:none;fill-opacity:1;stroke:#ffffff;stroke-width:5;stroke-miterlimit:4;stroke-dasharray:none;stroke-opacity:1"
       id="path3964-0-6"
       cx="97.178078"
       cy="98.14122"
       r="65.733231" /><path
       style="fill:#ffffff;fill-opacity:1;stroke-width:1"
       d="m 83.303148,138.96185 c -2.993142,-0.70157 -4.833287,-3.25366 -4.846437,-6.72151 -0.01751,-4.62919 1.189245,-8.49733 8.35433,-26.77812 3.099488,-7.907945 5.635439,-14.825636 5.635439,-15.372634 0,-2.135619 -1.943054,-2.241626 -4.651064,-0.253769 -0.867133,0.63653 -3.050868,2.875044 -4.852748,4.974487 -3.619454,4.217163 -4.369509,4.802326 -5.428841,4.235389 -1.752807,-0.938072 -1.055529,-2.772022 2.676015,-7.038371 6.783332,-7.755526 14.431858,-11.965246 21.777498,-11.986268 4.04228,-0.01133 6.74113,1.480271 7.9586,4.399262 0.61282,1.469262 0.68175,5.286849 0.13595,7.528196 -0.33632,1.381105 -9.08663,25.671668 -10.934785,30.354598 -1.673089,4.23933 -1.590107,6.38086 0.246318,6.35689 1.658747,-0.0217 3.024747,-1.14261 8.056357,-6.61114 3.69059,-4.01106 4.14414,-4.32749 5.04027,-3.51652 1.486,1.34483 0.15979,4.15635 -4.06681,8.62148 -7.97106,8.42086 -18.473025,13.36139 -25.100092,11.80803 z M 103.07081,74.418366 c -2.6656,-1.39253 -3.75632,-3.328228 -3.909129,-6.937568 -0.100511,-2.373176 -0.0022,-3.005636 0.703407,-4.547917 1.026512,-2.242179 2.890632,-4.098473 5.181672,-5.159921 1.5255,-0.706775 2.14896,-0.803612 4.52573,-0.702971 2.37175,0.100387 2.98413,0.257482 4.38736,1.125308 3.28318,2.030482 4.5761,6.032987 3.33162,10.313835 -0.45052,1.549712 -0.94776,2.32545 -2.45704,3.833167 -2.27675,2.274374 -4.12383,3.007274 -7.57902,3.007274 -1.98217,0 -2.71365,-0.162775 -4.1846,-0.931207 z"
       id="path4507-0" /></g><g
     id="g3739"
     transform="matrix(5.9258996,0,0,5.9258996,-4095.02,-328.73648)"
     style="stroke-width:0.16875"><path
       id="path798"
       style="font-variation-settings:normal;opacity:1;vector-effect:none;fill:#0d76a2;fill-opacity:1;stroke:none;stroke-width:0.0446486;stroke-linecap:butt;stroke-linejoin:miter;stroke-miterlimit:4;stroke-dasharray:none;stroke-dashoffset:0;stroke-opacity:1;stop-color:#000000;stop-opacity:1"
       d="M 830.00005,59.00006 830,65 h -10 v 13 h 10 l 5e-5,4.00006 c 0.006,0.53891 0.48555,0.9998 1,1 h 15 c 0.48254,-0.001 0.99795,-0.44694 1,-1 l 7e-5,-20.00018 -4.00028,-3.99976 -11.99979,-6e-5 c -0.52358,0.006 -0.99611,0.51279 -1,1 z M 832,60 h 9.9999 v 2.99982 h 3.00034 V 81.00027 H 832 V 78 h 11 V 65 h -11 z"
       sodipodi:nodetypes="cccccccccccccccccccccccc" /><text
       xml:space="preserve"
       style="font-weight:bold;font-size:7.93946px;line-height:1.25;font-family:Roboto;-inkscape-font-specification:'Roboto Bold';letter-spacing:0px;word-spacing:0px;fill:#ffffff;fill-opacity:1;stroke-width:0.0446486"
       x="820.49603"
       y="74.290298"
       id="text2923"><tspan
         sodipodi:role="line"
         id="tspan2921"
         style="fill:#ffffff;fill-opacity:1;stroke-width:0.0446486"
         x="820.49603"
         y="74.290298">HTML</tspan></text></g><g
     id="g3744"
     transform="matrix(5.925904,0,0,5.925904,-4884.0827,-476.88439)"
     style="stroke-width:0.168751"><path
       id="path798-3"
       style="font-variation-settings:normal;vector-effect:none;fill:#008000;fill-opacity:1;stroke:none;stroke-width:0.0446485;stroke-linecap:butt;stroke-linejoin:miter;stroke-miterlimit:4;stroke-dasharray:none;stroke-dashoffset:0;stroke-opacity:1;stop-color:#000000"
       d="M 995.00005,84.000059 995,89.999999 H 985 V 103 h 10 l 5e-5,4.00006 c 0.006,0.53891 0.48555,0.9998 1,1 H 1011 c 0.4826,-0.001 0.998,-0.44694 1,-1 l 10e-5,-20.000181 -4.0003,-3.99976 -11.99975,-6e-5 c -0.52358,0.006 -0.99611,0.51279 -1,1 z M 997,84.999999 h 9.9999 v 2.99982 h 3.0003 V 106.00027 H 997 V 103 h 11 V 89.999999 h -11 z"
       sodipodi:nodetypes="cccccccccccccccccccccccc" /><text
       xml:space="preserve"
       style="font-weight:bold;font-size:7.93946px;line-height:1.25;font-family:Roboto;-inkscape-font-specification:'Roboto Bold';letter-spacing:0px;word-spacing:0px;fill:#ffffff;fill-opacity:1;stroke-width:0.0446485"
       x="988.67108"
       y="99.290298"
       id="text2923-6"><tspan
         sodipodi:role="line"
         id="tspan2921-7"
         style="fill:#ffffff;fill-opacity:1;stroke-width:0.0446485"
         x="988.67108"
         y="99.290298">CSV</tspan></text></g></svg>
